<?xml version="1.0" encoding="utf-8"?>
<!-- Generator: Adobe Illustrator 16.0.4, SVG Export Plug-In . SVG Version: 6.00 Build 0)  -->
<!DOCTYPE svg PUBLIC "-//W3C//DTD SVG 1.1//EN" "http://www.w3.org/Graphics/SVG/1.1/DTD/svg11.dtd">
<svg version="1.1" id="Layer_1" xmlns="http://www.w3.org/2000/svg" xmlns:xlink="http://www.w3.org/1999/xlink" x="0px" y="0px"
	 width="566.93px" height="185.667px" viewBox="0 0 566.93 185.667" enable-background="new 0 0 566.93 185.667"
	 xml:space="preserve">
<g>
	<path fill="#3b444f" d="M498.55,64.561c-0.931-2.224-2.148-4.159-3.659-5.803c-1.508-1.645-3.23-3.056-5.166-4.238
		c-1.936-1.18-3.908-2.234-5.918-3.16c-2.014-0.93-3.986-1.812-5.922-2.643c-1.936-0.833-3.666-1.722-5.197-2.67
		c-1.527-0.947-2.744-2.033-3.651-3.25c-0.911-1.219-1.366-2.66-1.366-4.325c0-1.121,0.202-2.185,0.61-3.191
		c0.405-1.007,1.022-1.866,1.854-2.583c0.833-0.717,1.869-1.278,3.106-1.684c1.237-0.406,2.69-0.609,4.354-0.609
		c2.128,0,4.08,0.261,5.86,0.783c1.781,0.521,3.349,1.102,4.705,1.74c1.352,0.639,2.495,1.229,3.422,1.772
		c0.932,0.543,1.605,0.812,2.03,0.812c0.429,0,0.766-0.115,1.019-0.35c0.25-0.23,0.445-0.599,0.58-1.102
		c0.135-0.502,0.232-1.141,0.29-1.916c0.058-0.773,0.088-1.721,0.088-2.844c0-1.004-0.021-1.848-0.058-2.523
		c-0.04-0.678-0.107-1.238-0.206-1.685c-0.094-0.443-0.212-0.803-0.347-1.072c-0.139-0.271-0.398-0.601-0.786-0.987
		c-0.384-0.387-1.177-0.871-2.377-1.451c-1.201-0.58-2.573-1.104-4.121-1.566c-1.548-0.465-3.214-0.833-4.991-1.103
		c-1.78-0.271-3.561-0.406-5.341-0.406c-3.443,0-6.704,0.443-9.78,1.333c-3.077,0.893-5.746,2.234-8.009,4.033
		c-2.265,1.801-4.063,4.064-5.398,6.792c-1.334,2.729-2.002,5.892-2.002,9.491c0,3.133,0.464,5.824,1.393,8.066
		c0.93,2.244,2.139,4.188,3.627,5.834c1.491,1.646,3.184,3.057,5.079,4.237c1.895,1.181,3.851,2.233,5.864,3.163
		c2.01,0.929,3.962,1.809,5.86,2.641c1.896,0.832,3.588,1.723,5.079,2.67c1.49,0.948,2.697,2.031,3.628,3.25
		c0.928,1.219,1.393,2.679,1.393,4.382c0,1.47-0.272,2.806-0.812,4.005c-0.543,1.2-1.325,2.205-2.351,3.018
		c-1.024,0.814-2.275,1.441-3.743,1.889c-1.47,0.443-3.136,0.666-4.99,0.666c-2.829,0-5.312-0.32-7.46-0.958
		c-2.147-0.638-3.996-1.344-5.544-2.119c-1.548-0.774-2.815-1.479-3.8-2.118c-0.988-0.637-1.754-0.957-2.293-0.957
		c-0.388,0-0.726,0.107-1.019,0.32c-0.29,0.213-0.52,0.571-0.695,1.074c-0.175,0.502-0.3,1.16-0.377,1.973
		c-0.078,0.812-0.116,1.817-0.116,3.018c0,1.781,0.105,3.145,0.318,4.092c0.212,0.948,0.573,1.674,1.075,2.176
		c0.503,0.504,1.326,1.084,2.466,1.743c1.143,0.657,2.562,1.285,4.268,1.886c1.701,0.6,3.665,1.111,5.891,1.537
		c2.225,0.425,4.632,0.639,7.226,0.639c3.83,0,7.429-0.504,10.798-1.509c3.365-1.007,6.306-2.505,8.821-4.499
		c2.513-1.99,4.505-4.478,5.979-7.457c1.468-2.98,2.202-6.444,2.202-10.392C499.938,69.406,499.477,66.787,498.55,64.561
		 M442.974,86.153c-0.1-0.754-0.244-1.364-0.435-1.827c-0.196-0.466-0.438-0.803-0.727-1.016c-0.29-0.213-0.611-0.32-0.958-0.32
		h-27.049V61.806h22.695c0.349,0,0.667-0.098,0.957-0.292c0.29-0.191,0.533-0.51,0.726-0.957c0.193-0.445,0.339-1.035,0.435-1.771
		c0.099-0.733,0.148-1.663,0.148-2.786c0-1.082-0.05-2.002-0.148-2.756c-0.096-0.756-0.241-1.354-0.435-1.799
		c-0.192-0.443-0.436-0.774-0.726-0.988c-0.29-0.211-0.608-0.317-0.957-0.317h-22.695V31.799h26.816c0.349,0,0.657-0.108,0.929-0.32
		c0.271-0.213,0.502-0.552,0.698-1.018c0.19-0.462,0.335-1.072,0.435-1.826c0.095-0.755,0.146-1.676,0.146-2.758
		c0-1.162-0.051-2.118-0.146-2.873c-0.1-0.754-0.244-1.373-0.435-1.857c-0.196-0.483-0.427-0.822-0.698-1.016
		s-0.58-0.291-0.929-0.291h-37.494c-1.276,0-2.353,0.379-3.223,1.132c-0.87,0.755-1.305,1.985-1.305,3.687v65.469
		c0,1.705,0.435,2.933,1.305,3.688c0.87,0.754,1.946,1.132,3.223,1.132h37.727c0.347,0,0.668-0.106,0.958-0.319
		c0.289-0.212,0.53-0.553,0.727-1.014c0.19-0.466,0.335-1.074,0.435-1.83c0.095-0.754,0.146-1.693,0.146-2.816
		C443.119,87.846,443.068,86.908,442.974,86.153 M389.573,23.148c-0.095-0.812-0.239-1.46-0.436-1.943
		c-0.191-0.482-0.435-0.832-0.725-1.045c-0.29-0.212-0.608-0.32-0.958-0.32h-52.934c-0.386,0-0.715,0.108-0.988,0.32
		c-0.27,0.213-0.502,0.562-0.694,1.045c-0.192,0.483-0.337,1.131-0.435,1.943s-0.146,1.799-0.146,2.961
		c0,1.123,0.048,2.079,0.146,2.871c0.098,0.797,0.242,1.434,0.435,1.918c0.192,0.483,0.425,0.841,0.694,1.074
		c0.273,0.23,0.603,0.347,0.988,0.347h18.807v60.536c0,0.39,0.125,0.736,0.376,1.047c0.252,0.309,0.67,0.561,1.25,0.754
		s1.362,0.348,2.349,0.464c0.988,0.116,2.216,0.173,3.688,0.173c1.471,0,2.697-0.057,3.686-0.173
		c0.985-0.116,1.769-0.271,2.349-0.464c0.582-0.193,0.997-0.445,1.25-0.754c0.251-0.311,0.378-0.657,0.378-1.047V32.319h18.803
		c0.35,0,0.668-0.116,0.958-0.347c0.29-0.233,0.533-0.591,0.725-1.074c0.196-0.484,0.341-1.121,0.436-1.918
		c0.098-0.792,0.145-1.748,0.145-2.871C389.718,24.947,389.671,23.961,389.573,23.148 M328.892,25.527
		c0.698-1.393,1.162-2.494,1.395-3.307c0.229-0.814,0.123-1.422-0.32-1.829c-0.445-0.406-1.278-0.657-2.495-0.753
		c-1.218-0.099-2.931-0.146-5.138-0.146c-1.663,0-3,0.038-4.005,0.114c-1.005,0.078-1.797,0.232-2.379,0.466
		c-0.582,0.232-1.017,0.53-1.307,0.898s-0.533,0.862-0.725,1.48l-8.242,18.341c-0.736,1.779-1.49,3.658-2.265,5.631
		c-0.773,1.973-1.529,4.006-2.265,6.096h-0.114c-0.812-2.168-1.615-4.238-2.407-6.213c-0.796-1.973-1.598-3.849-2.41-5.629
		l-8.357-18.457c-0.271-0.543-0.552-0.988-0.842-1.335c-0.29-0.349-0.747-0.629-1.364-0.843c-0.62-0.213-1.463-0.357-2.525-0.436
		c-1.064-0.076-2.485-0.114-4.266-0.114c-2.128,0-3.792,0.047-4.991,0.146c-1.201,0.096-2.023,0.347-2.467,0.753
		c-0.445,0.407-0.562,1.007-0.349,1.8s0.688,1.906,1.423,3.336l20.547,40.92v26.408c0,0.39,0.114,0.736,0.348,1.047
		c0.232,0.309,0.646,0.561,1.247,0.754s1.383,0.348,2.351,0.464s2.205,0.173,3.715,0.173c1.472,0,2.699-0.057,3.688-0.173
		c0.986-0.116,1.769-0.271,2.35-0.464c0.58-0.193,0.995-0.445,1.248-0.754c0.251-0.311,0.378-0.657,0.378-1.047V66.447
		L328.892,25.527z M253.061,77.389c-0.601,1.297-1.432,2.379-2.497,3.251c-1.064,0.87-2.321,1.529-3.772,1.973
		c-1.451,0.445-3.241,0.668-5.368,0.668h-11.028V61.92h9.054c2.785,0,5.048,0.254,6.791,0.756c1.74,0.502,3.172,1.219,4.295,2.148
		c1.121,0.928,1.974,2.08,2.554,3.453c0.58,1.374,0.87,2.929,0.87,4.672C253.96,74.613,253.66,76.092,253.061,77.389
		 M249.433,44.653c-0.426,1.219-1.074,2.282-1.944,3.193c-0.872,0.909-1.964,1.624-3.28,2.147c-1.316,0.521-3.075,0.781-5.282,0.781
		h-8.531V31.273h7.72c2.358,0,4.246,0.215,5.658,0.64c1.412,0.427,2.583,1.036,3.512,1.829c0.928,0.795,1.625,1.791,2.089,2.988
		c0.464,1.2,0.697,2.555,0.697,4.062C250.072,42.149,249.858,43.434,249.433,44.653 M268.646,65.519
		c-0.775-2.05-1.828-3.839-3.163-5.368s-2.903-2.775-4.701-3.743c-1.801-0.968-3.765-1.644-5.892-2.032
		c1.662-0.619,3.142-1.43,4.44-2.436c1.295-1.008,2.389-2.169,3.279-3.484c0.889-1.314,1.568-2.775,2.03-4.382
		c0.465-1.605,0.698-3.318,0.698-5.136c0-3.251-0.58-6.077-1.744-8.477c-1.16-2.397-2.834-4.382-5.021-5.948
		c-2.184-1.566-4.873-2.737-8.065-3.511c-3.193-0.773-7.091-1.162-11.696-1.162h-18.862c-1.278,0-2.352,0.379-3.222,1.132
		c-0.87,0.755-1.307,1.985-1.307,3.687v65.469c0,1.705,0.437,2.933,1.307,3.688c0.87,0.754,1.944,1.132,3.222,1.132h19.966
		c3.018,0,5.755-0.184,8.213-0.552c2.455-0.367,4.767-0.938,6.936-1.711c2.167-0.773,4.149-1.762,5.947-2.961
		c1.801-1.199,3.349-2.632,4.646-4.295c1.295-1.664,2.312-3.579,3.047-5.748c0.735-2.164,1.103-4.582,1.103-7.255
		C269.806,69.872,269.418,67.57,268.646,65.519"/>
	<path fill="#A30046" d="M92.696,93.062v92.704c-34.603-0.067-64.763-19.058-80.688-47.172
		c12.941-12.703,34.699-32.446,56.998-45.532H92.696z M11.385,137.475c-7.23-13.186-11.354-28.319-11.384-44.412h45.66
		c-1.501,2.381-3.023,4.701-4.552,6.914C34.544,109.485,21.113,125.857,11.385,137.475"/>
	<path fill="#008C99" d="M92.697,81.574c26.542-10.173,47.337-8.542,61.446-0.766c6.344,3.496,11.378,7.66,15.193,12.256H92.697
		V81.574z M92.697,0c47.926,0,87.252,36.016,92.48,82.357c-2.923-6.18-7.965-11.834-15.956-17.108
		c-17.373-11.476-46.047-16.063-69.955-6.23c-2.264,0.931-4.455,1.919-6.57,2.944V0z"/>
	<path fill="#EE3524" d="M69.005,93.064c1.133-0.664,2.266-1.312,3.4-1.94c7.092-3.931,13.86-7.085,20.292-9.55v11.49H69.005z
		 M63.486,4.748C72.668,1.688,82.488,0.021,92.698,0v61.965C72.46,71.777,59.293,85.07,59.293,85.07s23.775-29.73,25.395-46.529
		c1.31-13.596-1.138-24.564-11.298-30.793C70.472,5.959,67.134,4.966,63.486,4.748 M0,92.883c0-25.59,10.349-48.76,27.088-65.561
		c5.528-4.904,11.882-8.62,18.611-8.932c21.133-0.984,22.445,25.878,19.822,35.054c-2.258,7.903-10.587,24.903-19.86,39.62H0V92.883
		z"/>
	<path fill="#06357A" d="M176.305,133.772c-15.122,30.795-46.96,51.994-83.583,51.994l-0.024-92.702h76.638
		c6.722,8.1,9.638,17.551,9.219,27.057C178.325,125.372,177.403,129.992,176.305,133.772"/>
	<g>
		<path fill="#3b444f" d="M223.538,122.707c-3.645-2.113-4.233-3.07-4.233-4.545c0-2.031,1.497-3.449,3.64-3.449
			c1.511,0,3.064,0.416,4.262,1.143l0.759,0.46v-4.447l-0.306-0.129c-1.324-0.557-3.279-0.916-4.981-0.916
			c-4.707,0-7.87,2.873-7.87,7.15c0,3.728,1.252,5.448,6.09,8.366c3.498,2.123,3.863,3.144,3.863,4.968
			c0,1.827-1.446,3.678-4.211,3.678c-1.526,0-3.478-0.847-4.795-1.639l-0.758-0.455v4.657l0.282,0.137
			c1.559,0.756,3.66,1.189,5.765,1.189c4.989,0,8.212-3.149,8.212-8.023C229.257,127.446,227.546,125.01,223.538,122.707z"/>
		<path fill="#3b444f" d="M240.514,110.823c-6.741,0-10.453,5.075-10.453,14.292c0,8.487,3.889,13.76,10.15,13.76
			c6.741,0,10.453-5.075,10.453-14.292C250.663,116.096,246.774,110.823,240.514,110.823z M240.21,135.137
			c-5.247,0-5.654-7.671-5.654-10.021c0-6.806,2.116-10.554,5.958-10.554c5.248,0,5.655,7.671,5.655,10.021
			C246.169,131.389,244.053,135.137,240.21,135.137z"/>
		<polygon fill="#3b444f" points="252.682,138.609 257.025,138.609 257.025,126.301 265.116,126.301 265.116,122.41 257.025,122.41 
			257.025,114.98 265.534,114.98 265.534,111.09 252.682,111.09 		"/>
		<polygon fill="#3b444f" points="309.605,111.09 305.331,130.928 300.951,111.09 295.893,111.09 291.528,130.856 287.548,111.09 
			283.12,111.09 283.024,111.09 266.621,111.09 266.621,114.98 272.701,114.98 272.701,138.609 277.043,138.609 277.043,114.98 
			283.12,114.98 283.12,111.529 289.015,138.609 293.772,138.609 298.422,117.542 303.072,138.609 307.829,138.609 313.819,111.09 
					"/>
		<path fill="#3b444f" d="M322.373,111.09l-9.229,27.52h4.41l2.128-6.917h9.364l2.128,6.917h4.556l-8.99-27.52H322.373z
			 M327.866,127.806h-6.96l3.528-11.164L327.866,127.806z"/>
		<path fill="#3b444f" d="M348.909,124.886c3.632-1.395,4.218-4.539,4.218-6.42c0-2.224-0.737-4.096-2.134-5.417
			c-1.468-1.373-3.24-1.959-5.927-1.959h-7.302v27.52h4.346v-12.006h1.018c2.181,0,3.021,0.606,3.745,2.699l3.153,9.307h4.672
			l-3.957-11.305C350.328,126.126,349.761,125.358,348.909,124.886z M342.11,114.824h2.157c1.99,0,4.362,0.672,4.362,3.871
			c0,0.979-0.32,4.174-4.437,4.174h-2.083V114.824z"/>
		<polygon fill="#3b444f" points="361.824,126.301 370.41,126.301 370.41,122.41 361.824,122.41 361.824,114.98 370.828,114.98 
			370.828,111.09 357.479,111.09 357.479,138.609 371.32,138.609 371.32,134.723 361.824,134.723 		"/>
		<path fill="#3b444f" d="M391.695,122.707c-3.645-2.112-4.232-3.069-4.232-4.545c0-2.031,1.497-3.449,3.642-3.449
			c1.508,0,3.061,0.416,4.26,1.143l0.759,0.46v-4.447l-0.306-0.129c-1.323-0.557-3.277-0.916-4.979-0.916
			c-4.709,0-7.872,2.873-7.872,7.15c0,3.727,1.253,5.447,6.091,8.366c3.499,2.123,3.864,3.145,3.864,4.968
			c0,1.827-1.446,3.678-4.211,3.678c-1.529,0-3.479-0.847-4.794-1.639l-0.758-0.456v4.658l0.281,0.137
			c1.557,0.756,3.657,1.189,5.763,1.189c4.988,0,8.212-3.149,8.212-8.023C397.414,127.445,395.703,125.009,391.695,122.707z"/>
		<polygon fill="#3b444f" points="405.39,126.301 413.976,126.301 413.976,122.41 405.39,122.41 405.39,114.98 414.394,114.98 
			414.394,111.09 401.048,111.09 401.048,138.609 414.886,138.609 414.886,134.723 405.39,134.723 		"/>
		<path fill="#3b444f" d="M429.775,124.885c3.632-1.394,4.218-4.538,4.218-6.419c0-2.227-0.737-4.1-2.135-5.416
			c-1.463-1.374-3.235-1.96-5.926-1.96h-7.299v27.52h4.342v-12.006h1.021c2.181,0,3.021,0.606,3.741,2.699l3.153,9.307h4.676
			l-3.957-11.305C431.197,126.125,430.63,125.358,429.775,124.885z M422.976,114.824h2.161c1.99,0,4.362,0.672,4.362,3.871
			c0,0.979-0.32,4.174-4.44,4.174h-2.083V114.824z"/>
		<polygon fill="#3b444f" points="445.166,131.553 439.341,111.09 434.639,111.09 442.995,138.609 447.079,138.609 455.712,111.09 
			451.317,111.09 		"/>
		<rect x="457.795" y="111.09" fill="#3b444f" width="4.346" height="27.52"/>
		<path fill="#3b444f" d="M478.124,110.823c-7.32,0-12.238,5.622-12.238,13.989c0,6.798,3.265,14.062,12.427,14.062
			c1.513,0,3.232-0.284,4.974-0.821l0.353-0.108v-4.581l-0.752,0.438c-1.31,0.763-2.906,1.183-4.496,1.183
			c-6.971,0-8.012-6.803-8.012-10.857c0-6.469,4.034-9.415,7.782-9.415c1.809,0,3.394,0.421,4.711,1.252l0.767,0.483v-4.483
			l-0.276-0.138C482.104,111.198,480.146,110.823,478.124,110.823z"/>
		<polygon fill="#3b444f" points="491.729,126.301 500.314,126.301 500.314,122.41 491.729,122.41 491.729,114.98 500.732,114.98 
			500.732,111.09 487.383,111.09 487.383,138.609 501.225,138.609 501.225,134.723 491.729,134.723 		"/>
		<path fill="#3b444f" d="M512.485,122.707c-3.646-2.112-4.233-3.069-4.233-4.545c0-2.031,1.497-3.449,3.642-3.449
			c1.508,0,3.061,0.416,4.26,1.143l0.759,0.46v-4.447l-0.306-0.129c-1.323-0.557-3.277-0.916-4.979-0.916
			c-4.709,0-7.872,2.873-7.872,7.15c0,3.683,1.31,5.48,6.092,8.366c3.498,2.123,3.863,3.145,3.863,4.968
			c0,1.827-1.446,3.678-4.211,3.678c-1.529,0-3.479-0.847-4.794-1.639l-0.758-0.456v4.658l0.281,0.137
			c1.557,0.756,3.657,1.189,5.763,1.189c4.988,0,8.212-3.149,8.212-8.023C518.203,127.445,516.492,125.01,512.485,122.707z"/>
	</g>
</g>
</svg>
