[
  {
    "displayName": "East US",
    "latitude": "37.3719",
    "longitude": "-79.8164",
    "shortName": "east-us",
    "pairedName": "west-us",
    "sortName": "us-east",
    "location": "Virginia, USA",
    "continent": "North America",
    "status": "available",
    "restricted": "no",
    "altNames": ["US East"],
    "country": "US"
  },
  {
    "displayName": "East US 2",
    "latitude": "36.6681",
    "longitude": "-78.3889",
    "shortName": "east-us-2",
    "pairedName": "central-us",
    "sortName": "us-east2",
    "location": "Virginia, USA",
    "continent": "North America",
    "status": "available",
    "restricted": "no",
    "altNames": ["US East 2", "us2"],
    "country": "US"
  },
  {
    "displayName": "Central US",
    "latitude": "41.5908",
    "longitude": "-93.6208",
    "shortName": "central-us",
    "pairedName": "east-us-2",
    "sortName": "us-central",
    "location": "Iowa, USA",
    "continent": "North America",
    "status": "available",
    "restricted": "no",
    "altNames": ["US Central", "cus"],
    "country": "US"
  },
  {
    "displayName": "North Central US",
    "latitude": "41.8819",
    "longitude": "-87.6278",
    "shortName": "north-central-us",
    "pairedName": "south-central-us",
    "sortName": "us-central-north",
    "location": "Illinois, USA",
    "continent": "North America",
    "status": "available",
    "restricted": "no",
    "altNames": ["US North Central"],
    "country": "US"
  },
  {
    "displayName": "South Central US",
    "latitude": "29.4167",
    "longitude": "-98.5",
    "shortName": "south-central-us",
    "pairedName": "north-central-us",
    "sortName": "us-central-south",
    "location": "Texas, USA",
    "continent": "North America",
    "status": "available",
    "restricted": "no",
    "altNames": ["US South Central"],
    "country": "US"
  },
  {
    "displayName": "West Central US",
    "latitude": "40.890",
    "longitude": "-110.234",
    "shortName": "west-central-us",
    "pairedName": "west-us-2",
    "sortName": "us-west2",
    "location": "Salt Lake City, USA",
    "continent": "North America",
    "status": "available",
    "restricted": "no",
    "altNames": ["US West Central", "wcu"],
    "country": "US"
  },
  {
    "displayName": "West US",
    "latitude": "37.783",
    "longitude": "-122.417",
    "shortName": "west-us",
    "pairedName": "east-us",
    "sortName": "us-west",
    "location": "California, USA",
    "continent": "North America",
    "status": "available",
    "restricted": "no",
    "altNames": ["US West"],
    "country": "US"
  },
  {
    "displayName": "West US 2",
    "latitude": "47.233",
    "longitude": "-119.852",
    "shortName": "west-us-2",
    "pairedName": "west-central-us",
    "sortName": "us-west-2",
    "location": "California, USA",
    "continent": "North America",
    "status": "available",
    "restricted": "no",
    "altNames": ["US West 2", "wu2"],
    "country": "US"
  },
  {
    "displayName": "US Gov. Virginia",
    "latitude": "",
    "longitude": "",
    "shortName": "usgov-virginia",
    "pairedName": "usgov-iowa",
    "sortName": "usgov-virginia",
    "location": "Virginia, USA",
    "continent": "North America",
    "status": "available",
    "restricted": "us-gov",
    "altNames": ["US Gov VA"],
    "country": "US"
  },
  {
    "displayName": "US Gov. Iowa",
    "latitude": "",
    "longitude": "",
    "shortName": "usgov-iowa",
    "pairedName": "usgov-virginia",
    "sortName": "usgov-iowa",
    "location": "Iowa, USA",
    "continent": "North America",
    "status": "available",
    "restricted": "us-gov",
    "altNames": ["US Gov IA"],
    "country": "US"
  },
  {
    "displayName": "US Gov. Arizona",
    "latitude": "",
    "longitude": "",
    "shortName": "usgov-arizona",
    "pairedName": "usgov-texas",
    "sortName": "usgov-arizona",
    "location": "Arizona, USA",
    "continent": "North America",
    "status": "available",
    "restricted": "us-gov",
    "altNames": ["US Gov AZ"],
    "country": "US"
  },
  {
    "displayName": "US Gov. Texas",
    "latitude": "",
    "longitude": "",
    "shortName": "usgov-texas",
    "pairedName": "usgov-arizona",
    "sortName": "usgov-texas",
    "location": "Texas, USA",
    "continent": "North America",
    "status": "available",
    "restricted": "us-gov",
    "altNames": ["US Gov TX"],
    "country": "US"
  },
  {
    "displayName": "US DoD East",
    "latitude": "",
    "longitude": "",
    "shortName": "usdod-east",
    "pairedName": "usdod-central",
    "sortName": "usdod-east",
    "location": "Virginia, USA",
    "continent": "North America",
    "status": "available",
    "restricted": "us-dod",
    "altNames": [],
    "country": "US"
  },
  {
    "displayName": "US DoD Central",
    "latitude": "",
    "longitude": "",
    "shortName": "usdod-central",
    "pairedName": "usdod-east",
    "sortName": "usdod-central",
    "location": "Iowa, USA",
    "continent": "North America",
    "status": "available",
    "restricted": "us-dod",
    "altNames": [],
    "country": "US"
  },
  {
    "displayName": "Canada East",
    "latitude": "46.817",
    "longitude": "-71.217",
    "shortName": "canada-east",
    "pairedName": "canada-central",
    "sortName": "ca-east",
    "location": "Quebec City, Canada",
    "continent": "North America",
    "status": "available",
    "restricted": "no",
    "altNames": ["CA East"],
    "country": "CA"
  },
  {
    "displayName": "Canada Central",
    "latitude": "43.653",
    "longitude": "-79.383",
    "shortName": "canada-central",
    "pairedName": "canada-east",
    "sortName": "ca-central",
    "location": "Toronto, Canada",
    "continent": "North America",
    "status": "available",
    "restricted": "no",
    "altNames": ["CA Central"],
    "country": "CA"
  },
  {
    "displayName": "Brazil South",
    "latitude": "-23.55",
    "longitude": "-46.633",
    "shortName": "brazil-south",
    "pairedName": "south-central-us",
    "sortName": "br-south",
    "location": "Sao Paulo, Brazil",
    "continent": "South America",
    "status": "available",
    "restricted": "no",
    "altNames": ["BR South"],
    "country": "BR"
  },
  {
    "displayName": "North Europe",
    "latitude": "53.3478",
    "longitude": "-6.2597",
    "shortName": "north-europe",
    "pairedName": "west-europe",
    "sortName": "eu-north",
    "location": "Dublin, Ireland",
    "continent": "Europe",
    "status": "available",
    "restricted": "no",
    "altNames": ["EU North", "eunorth", "neu"],
    "country": "EU"
  },
  {
    "displayName": "West Europe",
    "latitude": "52.3667",
    "longitude": "4.9",
    "shortName": "west-europe",
    "pairedName": "north-europe",
    "sortName": "eu-west",
    "location": "Amsterdam, Netherlands",
    "continent": "Europe",
    "status": "available",
    "restricted": "no",
    "altNames": ["EU West", "euwest", "weu"],
    "country": "EU"
  },
  {
    "displayName": "UK West",
    "latitude": "53.427",
    "longitude": "-3.084",
    "shortName": "uk-west",
    "pairedName": "uk-south",
    "sortName": "uk-west",
    "location": "Cardiff, UK",
    "continent": "Europe",
    "status": "available",
    "restricted": "no",
    "altNames": [],
    "country": "GB"
  },
  {
    "displayName": "UK South",
    "latitude": "50.941",
    "longitude": "-0.799",
    "shortName": "uk-south",
    "pairedName": "uk-west",
    "sortName": "uk-south",
    "location": "London, UK",
    "continent": "Europe",
    "status": "available",
    "restricted": "no",
    "altNames": [],
    "country": "GB"
  },
  {
    "displayName": "Germany Central",
    "latitude": "",
    "longitude": "",
    "shortName": "germany-central",
    "pairedName": "germany-northeast",
    "sortName": "de-central",
    "location": "Frankfurt, Germany",
    "continent": "Europe",
    "status": "announced",
    "restricted": "legal-entity",
    "altNames": ["DE Central"],
    "country": "DE"
  },
  {
    "displayName": "Germany Northeast",
    "latitude": "",
    "longitude": "",
    "shortName": "germany-northeast",
    "pairedName": "germany-central",
    "sortName": "de-northeast",
    "location": "Magdeburg, Germany",
    "continent": "Europe",
    "status": "announced",
    "restricted": "legal-entity",
    "altNames": ["DE Northeast"],
    "country": "DE"
  },
  {
    "displayName": "France Central",
    "latitude": "",
    "longitude": "",
    "shortName": "france-central",
    "pairedName": "france-south",
    "sortName": "fr-central",
    "location": "Paris, France",
    "continent": "Europe",
    "status": "announced",
    "restricted": "no",
    "altNames": ["FR Central"],
    "country": "FR"
  },
  {
    "displayName": "France South",
    "latitude": "",
    "longitude": "",
    "shortName": "france-south",
    "pairedName": "france-central",
    "sortName": "fr-south",
    "location": "Marseille, France",
    "continent": "Europe",
    "status": "announced",
    "restricted": "no",
    "altNames": ["FR South"],
    "country": "FR"
  },
  {
    "displayName": "Southeast Asia",
    "latitude": "1.283",
    "longitude": "103.833",
    "shortName": "southeast-asia",
    "pairedName": "east-asia",
    "sortName": "asia-southeast",
    "location": "Singapore, Singapore",
    "continent": "Asia",
    "status": "available",
    "restricted": "no",
    "altNames": ["AP Southeast"],
    "country": "SG"
  },
  {
    "displayName": "East Asia",
    "latitude": "22.267",
    "longitude": "114.188",
    "shortName": "east-asia",
    "pairedName": "southeast-asia",
    "sortName": "asia-east",
    "location": "Hong Kong, China",
    "continent": "Asia",
    "status": "available",
    "restricted": "no",
    "altNames": ["AP East"],
    "country": "HK"
  },
  {
    "displayName": "Australia East",
    "latitude": "-33.86",
    "longitude": "151.2094",
    "shortName": "australia-east",
    "pairedName": "australia-southeast",
    "sortName": "au-east",
    "location": "New South Wales, Australia",
    "continent": "Australia",
    "status": "available",
    "restricted": "no",
    "altNames": ["AU East"],
    "country": "AU"
  },
  {
    "displayName": "Australia Southeast",
    "latitude": "-37.8136",
    "longitude": "144.9631",
    "shortName": "australia-southeast",
    "pairedName": "australia-east",
    "sortName": "au-southeast",
    "location": "Victoria, Australia",
    "continent": "Australia",
    "status": "available",
    "restricted": "no",
    "altNames": ["AU Southeast"],
    "country": "AU"
  },
  {
    "displayName": "Australia Central 1",
    "latitude": "",
    "longitude": "",
    "shortName": "australia-central-1",
    "pairedName": "australia-central-2",
    "sortName": "au-central1",
    "location": "Canberra, Australia",
    "continent": "Australia",
    "status": "announced",
    "restricted": "no",
    "altNames": ["AU Central 1"],
    "country": "AU"
  },
  {
    "displayName": "Australia Central 2",
    "latitude": "",
    "longitude": "",
    "shortName": "australia-central-2",
    "pairedName": "australia-central-1",
    "sortName": "au-central2",
    "location": "Canberra, Australia",
    "continent": "Australia",
    "status": "announced",
    "restricted": "no",
    "altNames": ["AU Central 2"],
    "country": "AU"
  },
  {
    "displayName": "China East",
    "latitude": "",
    "longitude": "",
    "shortName": "china-east",
    "pairedName": "china-north",
    "sortName": "cn-east",
    "location": "Shanghai, China",
    "continent": "Asia",
    "status": "available",
    "restricted": "legal-entity",
    "altNames": ["CN East"],
    "country": "CN"
  },
  {
    "displayName": "China North",
    "latitude": "",
    "longitude": "",
    "shortName": "china-north",
    "pairedName": "china-east",
    "sortName": "cn-north",
    "location": "Beijing, China",
    "continent": "Asia",
    "status": "available",
    "restricted": "legal-entity",
    "altNames": ["CN North"],
    "country": "CN"
  },
  {
    "displayName": "Central India",
    "latitude": "18.5822",
    "longitude": "73.9197",
    "shortName": "central-india",
    "pairedName": "south-india",
    "sortName": "in-central",
    "location": "Pune, India",
    "continent": "Asia",
    "status": "available",
    "restricted": "no",
    "altNames": ["IN Central"],
    "country": "IN"
  },
  {
    "displayName": "West India",
    "latitude": "19.088",
    "longitude": "72.868",
    "shortName": "west-india",
    "pairedName": "south-india",
    "sortName": "in-west",
    "location": "Mumbai, India",
    "continent": "Asia",
    "status": "available",
    "restricted": "no",
    "altNames": ["IN West"],
    "country": "IN"
  },
  {
    "displayName": "South India",
    "latitude": "12.9822",
    "longitude": "80.1636",
    "shortName": "south-india",
    "pairedName": "central-india",
    "sortName": "in-south",
    "location": "Chennai, India",
    "continent": "Asia",
    "status": "available",
    "restricted": "no",
    "altNames": ["IN South"],
    "country": "IN"
  },
  {
    "displayName": "Japan East",
    "latitude": "35.68",
    "longitude": "139.77",
    "shortName": "japan-east",
    "pairedName": "japan-west",
    "sortName": "jp-east",
    "location": "Tokyo, Japan",
    "continent": "Asia",
    "status": "available",
    "restricted": "no",
    "altNames": ["JA East"],
    "country": "JP"
  },
  {
    "displayName": "Japan West",
    "latitude": "34.6939",
    "longitude": "135.5022",
    "shortName": "japan-west",
    "pairedName": "japan-east",
    "sortName": "jp-west",
    "location": "Osaka, Japan",
    "continent": "Asia",
    "status": "available",
    "restricted": "no",
    "altNames": ["JA West"],
    "country": "JP"
  },
  {
    "displayName": "Korea Central",
    "latitude": "37.5665",
    "longitude": "126.9780",
    "shortName": "korea-central",
    "pairedName": "korea-south",
    "sortName": "kr-central",
    "location": "Seoul, South Korea",
    "continent": "Asia",
    "status": "available",
    "restricted": "no",
    "altNames": ["KR Central"],
    "country": "KR"
  },
  {
    "displayName": "Korea South",
    "latitude": "35.1796",
    "longitude": "129.0756",
    "shortName": "korea-south",
    "pairedName": "korea-central",
    "sortName": "kr-south",
    "location": "Busan, South Korea",
    "continent": "Asia",
    "status": "available",
    "restricted": "no",
    "altNames": ["KR South"],
    "country": "KR"
  },
  {
    "displayName": "South Africa West",
    "latitude": "",
    "longitude": "",
    "shortName": "southafrica-west",
    "pairedName": "southafrica-north",
    "sortName": "sa-west",
    "location": "Cape Town, South Africa",
    "continent": "Africa",
    "status": "announced",
    "restricted": "no",
    "altNames": ["SA West"],
    "country": "ZA"
  },
  {
    "displayName": "South Africa North",
    "latitude": "",
    "longitude": "",
    "shortName": "southafrica-north",
    "pairedName": "southafrica-west",
    "sortName": "sa-north",
    "location": "johannesburg, South Africa",
    "continent": "Africa",
    "status": "announced",
    "restricted": "no",
    "altNames": ["SA North"],
    "country": "ZA"
  },
  {
    "displayName": "All Regions",
    "latitude": "",
    "longitude": "",
    "shortName": "all",
    "pairedName": "",
    "sortName": "-",
    "location": "",
    "continent": "",
    "status": "virtual",
    "restricted": "no",
    "altNames": ["Any", "global", ""],
    "country": ""
  },
  {
    "displayName": "Zone 1",
    "latitude": "",
    "longitude": "",
    "shortName": "zone-1",
    "pairedName": "",
    "sortName": "zone-1",
    "location": "",
    "continent": "",
    "status": "virtual",
    "restricted": "no",
    "altNames": [],
    "country": ""
  },
  {
    "displayName": "Zone 2",
    "latitude": "",
    "longitude": "",
    "shortName": "zone-2",
    "pairedName": "",
    "sortName": "zone-2",
    "location": "",
    "continent": "",
    "status": "virtual",
    "restricted": "no",
    "altNames": [],
    "country": ""
  },
  {
    "displayName": "Zone 3",
    "latitude": "",
    "longitude": "",
    "shortName": "zone-3",
    "pairedName": "",
    "sortName": "zone-3",
    "location": "",
    "continent": "",
    "status": "virtual",
    "restricted": "no",
    "altNames": [],
    "country": ""
  },
  {
    "displayName": "Zone 4",
    "latitude": "",
    "longitude": "",
    "shortName": "zone-4",
    "pairedName": "",
    "sortName": "zone-4",
    "location": "",
    "continent": "",
    "status": "virtual",
    "restricted": "no",
    "altNames": [],
    "country": ""
  },
  {
    "displayName": "Zone 5",
    "latitude": "",
    "longitude": "",
    "shortName": "zone-5",
    "pairedName": "",
    "sortName": "zone-5",
    "location": "",
    "continent": "",
    "status": "virtual",
    "restricted": "no",
    "altNames": [],
    "country": ""
  },
  {
    "displayName": "US Gov",
    "latitude": "",
    "longitude": "",
    "shortName": "usgov",
    "pairedName": "",
    "sortName": "usgov",
    "location": "",
    "continent": "",
    "status": "virtual",
    "restricted": "us-gov",
    "altNames": ["Gov (US)", "USGov"],
    "country": "US"
  },
  {
    "displayName": "US DoD",
    "latitude": "",
    "longitude": "",
    "shortName": "usdod",
    "pairedName": "",
    "sortName": "usdod",
    "location": "",
    "continent": "",
    "status": "virtual",
    "restricted": "us-dod",
    "altNames": ["DoD (US)", "USDoD"],
    "country": "US"
  },
  {
    "displayName": "UK North",
    "latitude": "",
    "longitude": "",
    "shortName": "uk-north",
    "pairedName": "",
    "sortName": "uk-north",
    "location": "",
    "continent": "",
    "status": "virtual",
    "restricted": "no",
    "altNames": ["UK North"],
    "country": "GB"
  },
  {
    "displayName": "UK South 2",
    "latitude": "",
    "longitude": "",
    "shortName": "uk-south-2",
    "pairedName": "",
    "sortName": "uk-south-2",
    "location": "",
    "continent": "",
    "status": "virtual",
    "restricted": "no",
    "altNames": ["UK South 2"],
    "country": "GB"
  },
  {
    "displayName": "Azure Stack",
    "latitude": "",
    "longitude": "",
    "shortName": "azure-stack",
    "pairedName": "",
    "sortName": "azure-stack",
    "location": "",
    "continent": "",
    "status": "virtual",
    "restricted": "no",
    "altNames": [],
    "country": ""
  }
]