{
  "data": [
    {
      "header":
      {
        "currency": "GBP",
        "locale": "en-US",
        "tax_included": false,
        "offer_terms": "",
        "source_date": "2016-01-01"
      },
      "items": [
        {
          "id": "2a9992f8-e914-490b-a7a6-6d21ba55acda",
          "name": "Operations (in 1,000,000s)",
          "rates":
          {
            "0": "0.00"
          },
          "tags":[],
          "category": "Service Bus",
          "subcategory": "Standard Messaging",
          "region": "",
          "unit": "1,000,000s",
          "includedQuantity": "13.0",
          "effectiveDate": "2016-01-01T00:00:00Z",
          "info":
          {
            "meterGuid": "2a9992f8-e914-490b-a7a6-6d21ba55acda",
            "dateRange": { "start": "2017-05-31", "end": "2017-08-04"},
            "price": "0.0",
            "comment": "not found in invoices - assume usage remained below free allowance"
          }
        },
        {
          "id": "3399fb93-fd47-4ea3-bf1a-6ded279aab72",
          "name": "Standard Managed Disk/S10 (Units)",
          "rates":
          {
            "0": "2.0513"
          },
          "tags":[],
          "category": "Storage",
          "subcategory": "Locally Redundant",
          "region": "UK West",
          "unit": "Units",
          "includedQuantity": "0.0",
          "effectiveDate": "2016-01-01T00:00:00Z",
          "info":
          {
            "meterGuid": "3399fb93-fd47-4ea3-bf1a-6ded279aab72",
            "dateRange": { "start": "2017-08-09", "end": "2017-09-30"},
            "price": "2.0513"
          }
        },
        {
          "id": "7aae1507-5b61-4125-ac2a-66ea118b150e",
          "name": "Standard Managed Disk/S10 (Units)",
          "rates":
          {
            "0": "2.0513"
          },
          "tags":[],
          "category": "Storage",
          "subcategory": "Locally Redundant",
          "region": "UK South",
          "unit": "Units",
          "includedQuantity": "0.0",
          "effectiveDate": "2016-01-01T00:00:00Z",
          "info":
          {
            "meterGuid": "7aae1507-5b61-4125-ac2a-66ea118b150e",
            "dateRange": { "start": "2017-07-28", "end": "2017-09-30"},
            "price": "2.0513"
          }
        },
        {
          "id": "91d1ae38-82b5-4d2c-a109-66d2818b3e66",
          "name": "Standard Managed Disk/S30 (Units)",
          "rates":
          {
            "0": "14.2718"
          },
          "tags":[],
          "category": "Storage",
          "subcategory": "Locally Redundant",
          "region": "UK South",
          "unit": "Units",
          "includedQuantity": "0.0",
          "effectiveDate": "2016-01-01T00:00:00Z",
          "info":
          {
            "meterGuid": "91d1ae38-82b5-4d2c-a109-66d2818b3e66",
            "dateRange": { "start": "2017-07-28", "end": "2017-09-30"},
            "price": "14.2718"
          }
        },
        {
          "id": "9df35c95-f93e-4896-9a3b-5dee09059098",
          "name": "Standard IO - Files (GB)",
          "rates":
          {
            "0": "0.0634"
          },
          "tags":[],
          "category": "Storage",
          "subcategory": "Locally Redundant",
          "region": "UK South",
          "unit": "GB",
          "includedQuantity": "0.0",
          "effectiveDate": "2016-01-01T00:00:00Z",
          "info":
          {
            "meterGuid": "9df35c95-f93e-4896-9a3b-5dee09059098",
            "dateRange": { "start": "2017-06-23", "end": "2017-09-18"},
            "price": "0.0634"
          }
        }
      ]
    }


  ]
}


